{
    "n1": [
        {
            "10.1.2.1:43553": [
                {
                    "timestamp": "1596813688.821",
                    "throughput": "4.15"
                },
                {
                    "timestamp": "1596813689.041",
                    "throughput": "16.70"
                },
                {
                    "timestamp": "1596813689.561",
                    "throughput": "12.11"
                },
                {
                    "timestamp": "1596813690.438",
                    "throughput": "5.97"
                },
                {
                    "timestamp": "1596813691.293",
                    "throughput": "6.13"
                },
                {
                    "timestamp": "1596813692.412",
                    "throughput": "4.57"
                },
                {
                    "timestamp": "1596813693.524",
                    "throughput": "4.71"
                },
                {
                    "timestamp": "1596813694.858",
                    "throughput": "3.93"
                },
                {
                    "timestamp": "1596813695.927",
                    "throughput": "4.90"
                },
                {
                    "timestamp": "1596813696.842",
                    "throughput": "5.59"
                },
                {
                    "timestamp": "1596813697.742",
                    "throughput": "5.82"
                },
                {
                    "timestamp": "1596813698.895",
                    "throughput": "4.55"
                },
                {
                    "timestamp": "1596813699.890",
                    "throughput": "5.27"
                },
                {
                    "timestamp": "1596813700.896",
                    "throughput": "5.08"
                },
                {
                    "timestamp": "1596813701.985",
                    "throughput": "4.81"
                },
                {
                    "timestamp": "1596813703.034",
                    "throughput": "5.00"
                },
                {
                    "timestamp": "1596813704.120",
                    "throughput": "4.83"
                },
                {
                    "timestamp": "1596813705.564",
                    "throughput": "3.99"
                },
                {
                    "timestamp": "1596813706.596",
                    "throughput": "4.95"
                },
                {
                    "timestamp": "1596813707.647",
                    "throughput": "4.99"
                },
                {
                    "timestamp": "1596813708.540",
                    "throughput": "5.72"
                }
            ]
        },
        {
            "10.1.2.1:38933": [
                {
                    "timestamp": "1596813688.833",
                    "throughput": "3.99"
                },
                {
                    "timestamp": "1596813689.090",
                    "throughput": "15.33"
                },
                {
                    "timestamp": "1596813689.775",
                    "throughput": "9.75"
                },
                {
                    "timestamp": "1596813690.615",
                    "throughput": "6.24"
                },
                {
                    "timestamp": "1596813692.619",
                    "throughput": "2.62"
                },
                {
                    "timestamp": "1596813693.782",
                    "throughput": "4.51"
                },
                {
                    "timestamp": "1596813694.742",
                    "throughput": "5.32"
                },
                {
                    "timestamp": "1596813695.843",
                    "throughput": "4.76"
                },
                {
                    "timestamp": "1596813697.244",
                    "throughput": "3.74"
                },
                {
                    "timestamp": "1596813698.673",
                    "throughput": "3.67"
                },
                {
                    "timestamp": "1596813699.946",
                    "throughput": "4.12"
                },
                {
                    "timestamp": "1596813701.227",
                    "throughput": "3.99"
                },
                {
                    "timestamp": "1596813702.535",
                    "throughput": "4.01"
                },
                {
                    "timestamp": "1596813703.706",
                    "throughput": "4.48"
                },
                {
                    "timestamp": "1596813704.661",
                    "throughput": "5.49"
                },
                {
                    "timestamp": "1596813705.729",
                    "throughput": "4.79"
                },
                {
                    "timestamp": "1596813706.925",
                    "throughput": "4.38"
                },
                {
                    "timestamp": "1596813708.223",
                    "throughput": "4.04"
                },
                {
                    "timestamp": "1596813708.540",
                    "throughput": "16.13"
                }
            ]
        }
    ]
}